<?xml version="1.0" encoding="UTF-8" standalone="no"?>
<!-- Created with Inkscape (http://www.inkscape.org/) -->

<svg
   width="50mm"
   height="390mm"
   viewBox="0 0 50 390"
   version="1.1"
   id="svg5"
   sodipodi:docname="gitter_v1.1_30cm.svg"
   inkscape:version="1.2.2 (732a01da63, 2022-12-09)"
   xmlns:inkscape="http://www.inkscape.org/namespaces/inkscape"
   xmlns:sodipodi="http://sodipodi.sourceforge.net/DTD/sodipodi-0.dtd"
   xmlns="http://www.w3.org/2000/svg"
   xmlns:svg="http://www.w3.org/2000/svg">
  <sodipodi:namedview
     id="namedview32"
     pagecolor="#505050"
     bordercolor="#eeeeee"
     borderopacity="1"
     inkscape:showpageshadow="0"
     inkscape:pageopacity="0"
     inkscape:pagecheckerboard="0"
     inkscape:deskcolor="#505050"
     inkscape:document-units="mm"
     showgrid="true"
     inkscape:zoom="1.2808547"
     inkscape:cx="-53.479915"
     inkscape:cy="174.49286"
     inkscape:window-width="1536"
     inkscape:window-height="898"
     inkscape:window-x="-6"
     inkscape:window-y="-6"
     inkscape:window-maximized="1"
     inkscape:current-layer="g1082">
    <inkscape:grid
       type="xygrid"
       id="grid261" />
  </sodipodi:namedview>
  <defs
     id="defs2" />
  <g
     id="layer1">
    <g
       id="g1082"
       transform="translate(-40)">
      <rect
         style="vector-effect:non-scaling-stroke;fill:#000000;fill-opacity:0;stroke:#00ffe5;stroke-width:2.41366;stroke-linecap:round;-inkscape-stroke:hairline"
         id="rect435"
         width="15"
         height="290"
         x="40"
         y="0" />
      <path
         style="vector-effect:non-scaling-stroke;fill:#ffffff;fill-opacity:0.172549;stroke:#00ffe5;stroke-width:0.264897;stroke-linecap:round;-inkscape-stroke:hairline"
         d="M 47.5,0 V 2 L 55.000292,1.99869"
         id="path437" />
      <path
         id="path439"
         style="vector-effect:non-scaling-stroke;fill:#ffffff;fill-opacity:0.172549;stroke:#00ffe5;stroke-width:0.263455;stroke-linecap:round;-inkscape-stroke:hairline"
         d="m 47.5,33.3 0.0026,1.982042 z m 0.0026,0.0031 h 7.4871 z m 0,1.982044 L 55,35.3 Z" />
      <path
         id="path441"
         style="vector-effect:non-scaling-stroke;fill:#ffffff;fill-opacity:0.172549;stroke:#00ffe5;stroke-width:0.263454;stroke-linecap:round;-inkscape-stroke:hairline"
         d="m 47.5,66.6 0.0026,1.982042 z m 0.0026,0.0031 h 7.48708 z m 0,1.982044 L 55,68.6 Z" />
      <path
         id="path443"
         style="vector-effect:non-scaling-stroke;fill:#ffffff;fill-opacity:0.172549;stroke:#00ffe5;stroke-width:0.263459;stroke-linecap:round;-inkscape-stroke:hairline"
         d="m 47.5,101.9 0.0026,1.98213 z m 0.0026,0.003 h 7.48708 z m 0,1.98213 7.497403,0.0149 z" />
      <path
         id="path445"
         style="vector-effect:non-scaling-stroke;fill:#ffffff;fill-opacity:0.172549;stroke:#00ffe5;stroke-width:0.263459;stroke-linecap:round;-inkscape-stroke:hairline"
         d="m 47.5,137.2 0.0026,1.98213 z m 0.0026,0.003 h 7.48708 z m 0,1.98213 7.497403,0.0149 z" />
      <path
         id="path447"
         style="vector-effect:non-scaling-stroke;fill:#ffffff;fill-opacity:0.172549;stroke:#00ffe5;stroke-width:0.263459;stroke-linecap:round;-inkscape-stroke:hairline"
         d="m 47.5,172.5 0.0026,1.98213 z m 0.0026,0.003 h 7.48708 z m 0,1.98213 7.497403,0.0149 z" />
      <path
         id="path449"
         style="vector-effect:non-scaling-stroke;fill:#ffffff;fill-opacity:0.172549;stroke:#00ffe5;stroke-width:0.263459;stroke-linecap:round;-inkscape-stroke:hairline"
         d="m 47.5,207.8 0.0026,1.98213 z m 0.0026,0.003 h 7.48708 z m 0,1.98213 7.497403,0.0149 z" />
      <path
         id="path451"
         style="vector-effect:non-scaling-stroke;fill:#ffffff;fill-opacity:0.172549;stroke:#00ffe5;stroke-width:0.263459;stroke-linecap:round;-inkscape-stroke:hairline"
         d="m 47.5,243.1 0.0026,1.98213 z m 0.0026,0.003 h 7.48708 z m 0,1.98213 7.497403,0.0149 z" />
      <path
         id="path453"
         style="vector-effect:non-scaling-stroke;fill:#ffffff;fill-opacity:0.172549;stroke:#00ffe5;stroke-width:0.263459;stroke-linecap:round;-inkscape-stroke:hairline"
         d="m 47.5,278.4 0.0026,1.98213 z m 0.0026,0.003 h 7.48708 z m 0,1.98213 7.497403,0.0149 z" />
    </g>
  </g>
</svg>
