<?xml version="1.0" encoding="UTF-8" standalone="no"?>
<!-- Created with Inkscape (http://www.inkscape.org/) -->

<svg
   width="50mm"
   height="390mm"
   viewBox="0 0 50 390"
   version="1.1"
   id="svg5"
   xmlns="http://www.w3.org/2000/svg"
   xmlns:svg="http://www.w3.org/2000/svg">
  <defs
     id="defs2" />
  <g
     id="layer1">
    <g
       id="g1082">
      <rect
         style="vector-effect:non-scaling-stroke;fill:#ffffff;fill-opacity:0.172549;stroke:#00ffe5;stroke-width:0.447425;stroke-linecap:round;-inkscape-stroke:hairline"
         id="rect234"
         width="15"
         height="351"
         x="0"
         y="-7.1054274e-15" />
      <path
         style="vector-effect:non-scaling-stroke;fill:#ffffff;fill-opacity:0.172549;stroke:#00ffe5;stroke-width:0.264897;stroke-linecap:round;-inkscape-stroke:hairline"
         d="M 7.5,0 V 2 L 15.000292,1.99869"
         id="path402" />
      <path
         id="path408"
         style="vector-effect:non-scaling-stroke;fill:#ffffff;fill-opacity:0.172549;stroke:#00ffe5;stroke-width:0.263455;stroke-linecap:round;-inkscape-stroke:hairline"
         d="m 7.5,33.3 0.00258,1.982042 z m 0.00258,0.0031 h 7.4871 z m 0,1.982044 L 15,35.3 Z" />
      <path
         id="path408-0"
         style="vector-effect:non-scaling-stroke;fill:#ffffff;fill-opacity:0.172549;stroke:#00ffe5;stroke-width:0.263454;stroke-linecap:round;-inkscape-stroke:hairline"
         d="m 7.5,66.6 0.0026,1.982042 z m 0.0026,0.0031 h 7.48708 z m 0,1.982044 L 15,68.6 Z" />
      <path
         id="path1054"
         style="vector-effect:non-scaling-stroke;fill:#ffffff;fill-opacity:0.172549;stroke:#00ffe5;stroke-width:0.263459;stroke-linecap:round;-inkscape-stroke:hairline"
         d="m 7.5,101.9 0.0026,1.98213 z m 0.0026,0.003 h 7.48708 z m 0,1.98213 7.497403,0.0149 z" />
      <path
         id="path1056"
         style="vector-effect:non-scaling-stroke;fill:#ffffff;fill-opacity:0.172549;stroke:#00ffe5;stroke-width:0.263459;stroke-linecap:round;-inkscape-stroke:hairline"
         d="m 7.5,137.2 0.0026,1.98213 z m 0.0026,0.003 h 7.48708 z m 0,1.98213 7.497403,0.0149 z" />
      <path
         id="path1058"
         style="vector-effect:non-scaling-stroke;fill:#ffffff;fill-opacity:0.172549;stroke:#00ffe5;stroke-width:0.263459;stroke-linecap:round;-inkscape-stroke:hairline"
         d="m 7.5,172.5 0.0026,1.98213 z m 0.0026,0.003 h 7.48708 z m 0,1.98213 7.497403,0.0149 z" />
      <path
         id="path1060"
         style="vector-effect:non-scaling-stroke;fill:#ffffff;fill-opacity:0.172549;stroke:#00ffe5;stroke-width:0.263459;stroke-linecap:round;-inkscape-stroke:hairline"
         d="m 7.5,207.8 0.0026,1.98213 z m 0.0026,0.003 h 7.48708 z m 0,1.98213 7.497403,0.0149 z" />
      <path
         id="path1062"
         style="vector-effect:non-scaling-stroke;fill:#ffffff;fill-opacity:0.172549;stroke:#00ffe5;stroke-width:0.263459;stroke-linecap:round;-inkscape-stroke:hairline"
         d="m 7.5,243.1 0.0026,1.98213 z m 0.0026,0.003 h 7.48708 z m 0,1.98213 7.497403,0.0149 z" />
      <path
         id="path1064"
         style="vector-effect:non-scaling-stroke;fill:#ffffff;fill-opacity:0.172549;stroke:#00ffe5;stroke-width:0.263459;stroke-linecap:round;-inkscape-stroke:hairline"
         d="m 7.5,278.4 0.0026,1.98213 z m 0.0026,0.003 h 7.48708 z m 0,1.98213 7.497403,0.0149 z" />
      <path
         id="path1066"
         style="vector-effect:non-scaling-stroke;fill:#ffffff;fill-opacity:0.172549;stroke:#00ffe5;stroke-width:0.263459;stroke-linecap:round;-inkscape-stroke:hairline"
         d="m 7.5,313.7 0.0026,1.98213 z m 0.0026,0.003 h 7.48708 z m 0,1.98213 7.497403,0.0149 z" />
      <path
         id="path1068"
         style="vector-effect:non-scaling-stroke;fill:#ffffff;fill-opacity:0.172549;stroke:#00ffe5;stroke-width:0.263459;stroke-linecap:round;-inkscape-stroke:hairline"
         d="m 7.5,349 0.0026,1.98213 z m 0.0026,0.003 h 7.48708 z m 0,1.98213 7.497403,0.0149 z" />
    </g>
    <g
       id="g1108"
       transform="translate(20)"
       style="fill:#000000;fill-opacity:0">
      <rect
         style="vector-effect:non-scaling-stroke;fill:#000000;fill-opacity:0;stroke:#00ffe5;stroke-width:0.469385;stroke-linecap:round;-inkscape-stroke:hairline"
         id="rect1084"
         width="15"
         height="386.29999"
         x="0"
         y="-7.1054274e-15" />
      <path
         style="vector-effect:non-scaling-stroke;fill:#000000;fill-opacity:0;stroke:#00ffe5;stroke-width:0.264897;stroke-linecap:round;-inkscape-stroke:hairline"
         d="M 7.5,0 V 2 L 15.000292,1.99869"
         id="path1086" />
      <path
         id="path1088"
         style="vector-effect:non-scaling-stroke;fill:#000000;fill-opacity:0;stroke:#00ffe5;stroke-width:0.263455;stroke-linecap:round;-inkscape-stroke:hairline"
         d="m 7.5,33.3 0.00258,1.982042 z m 0.00258,0.0031 h 7.4871 z m 0,1.982044 L 15,35.3 Z" />
      <path
         id="path1090"
         style="vector-effect:non-scaling-stroke;fill:#000000;fill-opacity:0;stroke:#00ffe5;stroke-width:0.263454;stroke-linecap:round;-inkscape-stroke:hairline"
         d="m 7.5,66.6 0.0026,1.982042 z m 0.0026,0.0031 h 7.48708 z m 0,1.982044 L 15,68.6 Z" />
      <path
         id="path1092"
         style="vector-effect:non-scaling-stroke;fill:#000000;fill-opacity:0;stroke:#00ffe5;stroke-width:0.263459;stroke-linecap:round;-inkscape-stroke:hairline"
         d="m 7.5,101.9 0.0026,1.98213 z m 0.0026,0.003 h 7.48708 z m 0,1.98213 7.497403,0.0149 z" />
      <path
         id="path1094"
         style="vector-effect:non-scaling-stroke;fill:#000000;fill-opacity:0;stroke:#00ffe5;stroke-width:0.263459;stroke-linecap:round;-inkscape-stroke:hairline"
         d="m 7.5,137.2 0.0026,1.98213 z m 0.0026,0.003 h 7.48708 z m 0,1.98213 7.497403,0.0149 z" />
      <path
         id="path1096"
         style="vector-effect:non-scaling-stroke;fill:#000000;fill-opacity:0;stroke:#00ffe5;stroke-width:0.263459;stroke-linecap:round;-inkscape-stroke:hairline"
         d="m 7.5,172.5 0.0026,1.98213 z m 0.0026,0.003 h 7.48708 z m 0,1.98213 7.497403,0.0149 z" />
      <path
         id="path1098"
         style="vector-effect:non-scaling-stroke;fill:#000000;fill-opacity:0;stroke:#00ffe5;stroke-width:0.263459;stroke-linecap:round;-inkscape-stroke:hairline"
         d="m 7.5,207.8 0.0026,1.98213 z m 0.0026,0.003 h 7.48708 z m 0,1.98213 7.497403,0.0149 z" />
      <path
         id="path1100"
         style="vector-effect:non-scaling-stroke;fill:#000000;fill-opacity:0;stroke:#00ffe5;stroke-width:0.263459;stroke-linecap:round;-inkscape-stroke:hairline"
         d="m 7.5,243.1 0.0026,1.98213 z m 0.0026,0.003 h 7.48708 z m 0,1.98213 7.497403,0.0149 z" />
      <path
         id="path1102"
         style="vector-effect:non-scaling-stroke;fill:#000000;fill-opacity:0;stroke:#00ffe5;stroke-width:0.263459;stroke-linecap:round;-inkscape-stroke:hairline"
         d="m 7.5,278.4 0.0026,1.98213 z m 0.0026,0.003 h 7.48708 z m 0,1.98213 7.497403,0.0149 z" />
      <path
         id="path1104"
         style="vector-effect:non-scaling-stroke;fill:#000000;fill-opacity:0;stroke:#00ffe5;stroke-width:0.263459;stroke-linecap:round;-inkscape-stroke:hairline"
         d="m 7.5,313.7 0.0026,1.98213 z m 0.0026,0.003 h 7.48708 z m 0,1.98213 7.497403,0.0149 z" />
      <path
         id="path1106"
         style="vector-effect:non-scaling-stroke;fill:#000000;fill-opacity:0;stroke:#00ffe5;stroke-width:0.263459;stroke-linecap:round;-inkscape-stroke:hairline"
         d="m 7.5,351 0.0026,1.98213 z m 0.0026,0.003 h 7.48708 z m 0,1.98213 7.497403,0.0149 z" />
      <path
         id="path1317"
         style="vector-effect:non-scaling-stroke;fill:#000000;fill-opacity:0;stroke:#00ffe5;stroke-width:0.263459;stroke-linecap:round;-inkscape-stroke:hairline"
         d="m 7.5,384.3 0.0026,1.98213 z m 0.0026,0.003 h 7.48708 z m 0,1.98213 7.497403,0.0149 z" />
    </g>
  </g>
</svg>
